1 10 20
100 200 125
1 999999 525
201 210 89
900 1000 174
1 1 1
200 100 125
87 93 93
45 66 113
91 37 116
827 287 171
99 183 125
729 92 171
82 99 119
700 800 171
1000 2000 182
1000 5 179
850 900 179
900 950 174
400 900 179
3 7 17
8 9 20
8 8 4
40 100 119
56 98 119
413 188 144
1 99 119
99 1 119
845 76 171
28 17 112
945 27 179
84 274 128
27 927 179
46 58 113
293 726 171
29 374 144
384 57 144
298 103 128
378 37 144
238 99 128
982 321 179
47 12 112
133 9 122
98 98 26
90 91 93
237 93 128
283 71 128
71 89 116
111 222 125
222 111 125
10 290 128
218 912 179
283 4 128
2 999 179
293 78 128
234 899 179
2345 83 183
6 678 145
345 45 144
28 173 125
275 100 128
20 50 112
18 294 128
5000 8000 262
940 800 179
173 855 171
67 89 116
173 183 94
66 66 28
294 193 128
174 578 144
385 395 121
285 33 128
38 502 144
28 275 128
35 42 110
10 304 128
104 491 144
195 287 128
294 193 128
295 958 179
18 27 112
135 17 122
35 103 119
36 35 22
49 899 179
34 1 112
31 8 112
930 823 179
2377 1000 183
34 1000 179
4387 1234 238
289 938 179
23 908 179
47 912 179
473 293 144
3128 1 217
3 3948 238
427 239 144
471 2984 217
341 294 144
4318 239 238
24 923 179
324 324 25
9 9 20
342 912 179
548 832 171
351 99 144
349 349 33
288 379 144
1928 773 182
284720 3829 443
385 99273 351
73 102834 351
378 103842 351
928371 264 525
92853 204827 383
28471 38501 324
829732 23742 509
247312 8986 443
1 93482 351
3472 39844 324
123 89384 351
23113 239810 443
241 29371 308
111 342344 443
34 9080 262
214314 980900 525
348 93204 351
98 900 179
241344 395020 441
568575 456924 470
